[
{
  "model": "main.advuser",
  "pk": 5,
  "fields": {
    "password": "",
    "last_login": null,
    "is_superuser": false,
    "username": "Victor88",
    "first_name": "",
    "last_name": "",
    "email": "newmad4@gmail.com",
    "is_staff": false,
    "is_active": true,
    "date_joined": "2019-10-08T16:54:22.065Z",
    "is_activated": true,
    "send_messages": true,
    "groups": [],
    "user_permissions": []
  }
},
{
  "model": "main.advuser",
  "pk": 8,
  "fields": {
    "password": "pbkdf2_sha256$120000$mlpZsCmnq2SE$wHGngDnVJvGKsU9Tro6MF0UPOP8f9c/IyxGSCzWdgpQ=",
    "last_login": "2019-10-31T16:30:53.355Z",
    "is_superuser": true,
    "username": "Asya",
    "first_name": "",
    "last_name": "",
    "email": "hitechnic7670850@gmail.com",
    "is_staff": true,
    "is_active": true,
    "date_joined": "2019-10-09T08:36:57.135Z",
    "is_activated": true,
    "send_messages": true,
    "groups": [],
    "user_permissions": []
  }
},
{
  "model": "main.advuser",
  "pk": 13,
  "fields": {
    "password": "pbkdf2_sha256$120000$HZjDXsnTLmBn$h/IVBh9QnrMu8MoTUBSN5GG+7IO+6NsW39SmDd3WQwE=",
    "last_login": "2019-10-29T06:36:45.242Z",
    "is_superuser": false,
    "username": "Yar",
    "first_name": "",
    "last_name": "",
    "email": "aizatsana15@gmail.com",
    "is_staff": false,
    "is_active": true,
    "date_joined": "2019-10-28T08:10:00.795Z",
    "is_activated": true,
    "send_messages": false,
    "groups": [],
    "user_permissions": []
  }
},
{
  "model": "main.advuser",
  "pk": 14,
  "fields": {
    "password": "pbkdf2_sha256$120000$XlfAK5Ssj2kJ$2Lt+R8ihiQSrLybM/ACvWY+AeODVf2MFs9T39CIxuZs=",
    "last_login": null,
    "is_superuser": false,
    "username": "Anastasiia",
    "first_name": "",
    "last_name": "",
    "email": "aizatsana15@gmail.com",
    "is_staff": false,
    "is_active": true,
    "date_joined": "2019-10-29T06:35:16.365Z",
    "is_activated": true,
    "send_messages": true,
    "groups": [],
    "user_permissions": []
  }
},
{
  "model": "main.rubric",
  "pk": 1,
  "fields": {
    "name": "\u041e\u0434\u0435\u0436\u0434\u0430",
    "order": 0,
    "super_rubric": null
  }
},
{
  "model": "main.rubric",
  "pk": 2,
  "fields": {
    "name": "\u0414\u0435\u0442\u0441\u043a\u0430\u044f",
    "order": 0,
    "super_rubric": 1
  }
},
{
  "model": "main.rubric",
  "pk": 3,
  "fields": {
    "name": "\u0414\u043b\u044f \u043c\u0443\u0436\u0447\u0438\u043d",
    "order": 0,
    "super_rubric": 1
  }
},
{
  "model": "main.rubric",
  "pk": 4,
  "fields": {
    "name": "\u0414\u043b\u044f \u0436\u0435\u043d\u0449\u0438\u043d",
    "order": 0,
    "super_rubric": 1
  }
},
{
  "model": "main.rubric",
  "pk": 5,
  "fields": {
    "name": "\u041f\u0438\u0442\u0430\u043d\u0438\u0435",
    "order": 0,
    "super_rubric": null
  }
},
{
  "model": "main.rubric",
  "pk": 6,
  "fields": {
    "name": "\u0414\u0435\u0442\u0441\u043a\u043e\u0435",
    "order": 0,
    "super_rubric": 5
  }
},
{
  "model": "main.rubric",
  "pk": 7,
  "fields": {
    "name": "\u0414\u043b\u044f \u0432\u0435\u0433\u0435\u0440\u0438\u0430\u043d\u0446\u0435\u0432",
    "order": 0,
    "super_rubric": 5
  }
},
{
  "model": "main.rubric",
  "pk": 8,
  "fields": {
    "name": "\u041d\u0435\u0434\u0432\u0438\u0436\u0438\u043c\u043e\u0441\u0442\u044c",
    "order": 0,
    "super_rubric": null
  }
},
{
  "model": "main.rubric",
  "pk": 9,
  "fields": {
    "name": "\u041a\u0432\u0430\u0440\u0442\u0438\u0440\u044b",
    "order": 0,
    "super_rubric": 8
  }
},
{
  "model": "main.rubric",
  "pk": 10,
  "fields": {
    "name": "\u041a\u043e\u0442\u0442\u0435\u0434\u0436\u0438",
    "order": 0,
    "super_rubric": 8
  }
},
{
  "model": "main.rubric",
  "pk": 11,
  "fields": {
    "name": "\u0414\u0430\u0447\u0438",
    "order": 0,
    "super_rubric": 8
  }
},
{
  "model": "main.bb",
  "pk": 1,
  "fields": {
    "rubric": 2,
    "title": "\u0414\u0436\u0438\u043d\u0441\u044b",
    "content": "\u0414\u0436\u0438\u043d\u0441\u0438 \u0434\u043b\u044f \u043c\u0430\u043b\u044c\u0447\u0438\u043a\u0430, \u0440\u043e\u0441\u0442 110 \u0441\u043c, \u0441\u043e\u0441\u0442\u043e\u044f\u043d\u0438\u0435 \u043a\u0430\u043a \u043d\u043e\u0432\u043e\u0435.",
    "price": 100.0,
    "contacts": "+380630281885",
    "image": "",
    "author": 8,
    "is_active": true,
    "created_at": "2019-10-11T09:54:46.501Z"
  }
},
{
  "model": "main.bb",
  "pk": 2,
  "fields": {
    "rubric": 7,
    "title": "\u0410\u0432\u043e\u043a\u0430\u0434\u043e",
    "content": "\u0421\u0432\u0435\u0436\u0438\u0435 \u0430\u0432\u043e\u043a\u0430\u0434\u043e \u0438\u0437 \u0418\u0441\u043f\u0430\u043d\u0438\u0438.",
    "price": 50.0,
    "contacts": "+65416678915",
    "image": "",
    "author": 8,
    "is_active": true,
    "created_at": "2019-10-11T09:59:52.748Z"
  }
},
{
  "model": "main.bb",
  "pk": 3,
  "fields": {
    "rubric": 9,
    "title": "2-\u0445 \u043a\u043e\u043c\u043d\u0430\u0442\u043d\u0430\u044f \u043a\u0432\u0430\u0440\u0442\u0438\u0440\u0430",
    "content": "\u041f\u0440\u043e\u0434\u0430\u0435\u0442\u0441\u044f 2-\u0445 \u043a\u043e\u043c\u043d\u0430\u0442\u043d\u0430\u044f \u043a\u0432\u0430\u0440\u0442\u0438\u0440\u0430 \u0432 \u0446\u0435\u043d\u0442\u0440\u0435 \u0433\u043e\u0440\u043e\u0434\u0430. \u0421 \u043d\u043e\u0432\u044b\u043c \u0440\u0435\u043c\u043e\u043d\u0442\u043e\u043c, \u0431\u0435\u0437 \u043c\u0435\u0431\u0435\u043b\u0438. \u0425\u043e\u0440\u043e\u0448\u0430\u044f \u0442\u0440\u0430\u043d\u0441\u043f\u043e\u0440\u0442\u043d\u0430\u044f \u0440\u0430\u0437\u0432\u044f\u0437\u043a\u0430, \u043f\u0430\u0440\u043a \u0440\u044f\u0434\u043e\u043c.",
    "price": 700000.0,
    "contacts": "+487541485",
    "image": "",
    "author": 8,
    "is_active": true,
    "created_at": "2019-10-11T10:05:11.644Z"
  }
},
{
  "model": "main.bb",
  "pk": 4,
  "fields": {
    "rubric": 11,
    "title": "\u0414\u0430\u0447\u0430",
    "content": "\u041f\u0440\u043e\u0434\u0430\u0435\u0442\u0441\u044f \u0434\u0430\u0447\u043d\u044b\u0439 \u0443\u0447\u0430\u0441\u0442\u043e\u043a 15 \u0441\u043e\u0442\u043e\u043a, \u0441 \u043d\u0435\u0431\u043e\u043b\u044c\u0448\u043e\u0439 \u043f\u0440\u0438\u0441\u0442\u0440\u043e\u0439\u043a\u043e\u0439 40 \u043a\u0432.\u043c, 50\u043a\u043c \u043e\u0442 \u041a\u0438\u0435\u0432\u0430. \u0426\u0435\u043d\u0430 \u0434\u043e\u0433\u043e\u0432\u043e\u0440\u043d\u0430\u044f.",
    "price": 150000.0,
    "contacts": "+115415185611",
    "image": "",
    "author": 5,
    "is_active": true,
    "created_at": "2019-10-11T10:20:53.571Z"
  }
}
]
